[
  {
    "nom": "montserrat",
    "provincia": "barcelona",
    "recurs": "https://bitbucket.org/martifer/imatges/raw/master/montserrat.jpeg",
    "longitud" : 1.837139,
    "latitud" : 41.593206,
    "radi" : 5000
  },
  {
    "nom": "vallnuria",
    "provincia": "girona",
    "recurs": "https://bitbucket.org/martifer/imatges/raw/master/vallnuria.jpg",
    "longitud" : 2.153056,
    "latitud" : 42.396944,
    "radi" : 1000
  },
  {
    "nom": "tarragona",
    "provincia": "tarragona",
    "recurs": "https://bitbucket.org/martifer/imatges/raw/master/tarragona.jpg",
    "longitud" : 1.24532,
    "latitud" : 41.11868,
     "radi" : 5000
  },
  {
    "nom": "besalu",
    "provincia": "girona",
    "recurs": "https://bitbucket.org/martifer/imatges/raw/master/besalu.jpg",
    "longitud" : 2.698557,
    "latitud" : 42.198926,
    "radi" : 2000
  },
  {
    "nom": "avmadrid",
    "provincia": "barcelona",
    "recurs": "https://bitbucket.org/martifer/imatges/raw/master/check.png",
    "longitud" : 2.132998,
    "latitud" : 41.38086,
    "radi" : 50
  },
  {
    "nom": "bruixa",
    "provincia": "barcelona",
    "recurs": "https://bitbucket.org/martifer/imatges/raw/master/bruixa.jpeg",
    "longitud" : 2.1328314,
    "latitud" : 41.384102,
    "radi" : 50
  },
  {
    "nom": "cornella",
    "provincia": "barcelona",
    "recurs": "https://bitbucket.org/martifer/imatges/raw/master/cornella.jpg",
    "longitud" : 2.066371,
    "latitud" : 41.35521,
    "radi" : 2000
  },
  {
    "nom": "manteca",
    "provincia": "barcelona",
    "recurs": "https://bitbucket.org/martifer/imatges/raw/master/manteca.jpg",
    "longitud" : 2.132689,
    "latitud" : 41.379000, 
    "radi" : 50
  },
{
    "nom": "lleida",
    "provincia": "lleida",
    "recurs": "https://bitbucket.org/martifer/imatges/raw/master/lleida.jpg",
    "longitud" : 0.626489,
    "latitud" : 41.613569,
    "radi" : 5000
  },
  {
    "nom": "granvia2",
    "provincia": "barcelona",
    "recurs": "https://bitbucket.org/martifer/imatges/raw/master/granvia2.jpeg",
    "longitud" : 2.129695,
    "latitud" : 41.358945,
    "radi" : 500
  },
  {
    "nom": "vic",
    "provincia": "barcelona",
    "recurs": "https://bitbucket.org/martifer/imatges/raw/master/vic.jpg",
    "longitud" : 2.253946,
    "latitud" : 41.930009,
    "radi" : 5000
  },
  {
    "nom": "cadaques",
    "provincia": "girona",
    "recurs": "https://bitbucket.org/martifer/imatges/raw/master/cadaques.jpeg",
    "longitud" : 3.277405,
    "latitud" : 42.288326,
    "radi" : 2000
  },
  {
    "nom": "olot",
    "provincia": "girona",
    "recurs": "https://bitbucket.org/martifer/imatges/raw/master/olot.jpeg",
    "longitud" : 2.486361,
    "latitud" : 42.182932,
    "radi" : 5000
  },
  {
    "nom": "les preses",
    "provincia": "girona",
    "recurs": "https://bitbucket.org/martifer/imatges/raw/master/preses.jpg",
    "longitud" : 2.460044,
    "latitud" : 42.145924,
    "radi" : 2000
  },
  {
    "nom": "barcelona",
    "provincia": "barcelona",
    "recurs": "https://bitbucket.org/martifer/imatges/raw/master/barcelona.jpg",
    "longitud" : 2.177334,
    "latitud" : 41.397235,
    "radi" : 10000
  },
  {
    "nom": "arties",
    "provincia": "lleida",
    "recurs": "https://bitbucket.org/martifer/imatges/raw/master/arties.jpg",
    "longitud" : 0.870825,
    "latitud" : 42.700708,
    "radi" : 2000
  },{
    "nom": "montblanc",
    "provincia": "tarragona",
    "recurs": "https://bitbucket.org/martifer/imatges/raw/master/montblanc.jpg",
    "longitud" : 1.163889,
    "latitud" : 41.377222,
    "radi" : 2000
  },{
    "nom": "miravet",
    "provincia": "tarragona",
    "recurs": "https://bitbucket.org/martifer/imatges/raw/master/miravet.jpg",
    "longitud" : 0.598611,
    "latitud" : 41.04,
    "radi" : 2000
  },{
    "nom": "setcases",
    "provincia": "girona",
    "recurs": "https://bitbucket.org/martifer/imatges/raw/master/setcases.jpg",
    "longitud" : 2.3025,
    "latitud" : 42.376944,
    "radi" : 2000
  },{
    "nom": "hostalets",
    "provincia": "tarragona",
    "recurs": "https://bitbucket.org/martifer/imatges/raw/master/hostalets.jpg",
    "longitud" : 2.44965,
    "latitud" : 42.102206,
    "radi" : 2000
  }
]
